{
   "description":"Inspect delivery 45",
   "actions":[
      {
         "action":"fail", "message": "Delivery 45 requirements not met"
      }
   ],
   "conditions":[
      {
         "field":"local_gb", "op":"ne", "value": 500
      }
   ],
   "scope":"delivery_45"
}
